Library\Bee\artifacts\mvdfrm\UnityEditor.TestRunner.ref.dll_A805A84D9B0C22D9.mvfrm
Library\Bee\artifacts\mvdfrm\UnityEditor.UI.ref.dll_0174E068A5FA251B.mvfrm
Library\Bee\artifacts\mvdfrm\UnityEngine.TestRunner.ref.dll_7423F2FBC6CF80C4.mvfrm
Library\Bee\artifacts\mvdfrm\UnityEngine.UI.ref.dll_BDDAB6C3AC1C4D86.mvfrm
Library\Bee\artifacts\mvdfrm\Unity.Burst.Cecil.dll_DEC5CBE5CB75DAFD.mvfrm
Library\Bee\artifacts\mvdfrm\Unity.Burst.Cecil.Mdb.dll_C5DBD06E2683757A.mvfrm
Library\Bee\artifacts\mvdfrm\Unity.Burst.Cecil.Pdb.dll_DD2E48DDA53876FD.mvfrm
Library\Bee\artifacts\mvdfrm\Unity.Burst.Cecil.Rocks.dll_132EE79DB7B768BD.mvfrm
Library\Bee\artifacts\mvdfrm\Unity.Plastic.Antlr3.Runtime.dll_022EBEDD8C06F24E.mvfrm
Library\Bee\artifacts\mvdfrm\Unity.Plastic.Newtonsoft.Json.dll_258F9A4FFFD9E707.mvfrm
Library\Bee\artifacts\mvdfrm\UnityEditor.Graphs.dll_3DABE7164F6826B3.mvfrm
Library\Bee\artifacts\mvdfrm\UnityEditor.CoreModule.dll_527CEE4DD0B85D81.mvfrm
Library\Bee\artifacts\mvdfrm\UnityEditor.DeviceSimulatorModule.dll_609B08C353508F10.mvfrm
Library\Bee\artifacts\mvdfrm\UnityEditor.DiagnosticsModule.dll_0B499B68B2AE7D5E.mvfrm
Library\Bee\artifacts\mvdfrm\UnityEditor.dll_6A5D78A97D6C7444.mvfrm
Library\Bee\artifacts\mvdfrm\UnityEditor.GraphViewModule.dll_611C3F97ACC6A175.mvfrm
Library\Bee\artifacts\mvdfrm\UnityEditor.PackageManagerUIModule.dll_1C0E1BECFF40439D.mvfrm
Library\Bee\artifacts\mvdfrm\UnityEditor.QuickSearchModule.dll_96591C760B8579B7.mvfrm
Library\Bee\artifacts\mvdfrm\UnityEditor.SceneTemplateModule.dll_4147B9F371662518.mvfrm
Library\Bee\artifacts\mvdfrm\UnityEditor.TextCoreFontEngineModule.dll_754E43B1712429DF.mvfrm
Library\Bee\artifacts\mvdfrm\UnityEditor.TextCoreTextEngineModule.dll_BD367A2300A7E2FD.mvfrm
Library\Bee\artifacts\mvdfrm\UnityEditor.UIBuilderModule.dll_B5A4ECB41F7F1AA9.mvfrm
Library\Bee\artifacts\mvdfrm\UnityEditor.UIElementsModule.dll_596BAE903B1B371D.mvfrm
Library\Bee\artifacts\mvdfrm\UnityEditor.UIElementsSamplesModule.dll_04F7BF13CC4C2B20.mvfrm
Library\Bee\artifacts\mvdfrm\UnityEditor.UIServiceModule.dll_EE96FE1708B66AC3.mvfrm
Library\Bee\artifacts\mvdfrm\UnityEditor.UnityConnectModule.dll_904AE9D10992CCB7.mvfrm
Library\Bee\artifacts\mvdfrm\UnityEngine.AccessibilityModule.dll_73ED258A71DC4CB5.mvfrm
Library\Bee\artifacts\mvdfrm\UnityEngine.AIModule.dll_C2F82636120605B5.mvfrm
Library\Bee\artifacts\mvdfrm\UnityEngine.AndroidJNIModule.dll_D7B49763843AA5F3.mvfrm
Library\Bee\artifacts\mvdfrm\UnityEngine.AnimationModule.dll_2FA1BBC08723761B.mvfrm
Library\Bee\artifacts\mvdfrm\UnityEngine.ARModule.dll_7C6AEB396F23647E.mvfrm
Library\Bee\artifacts\mvdfrm\UnityEngine.AssetBundleModule.dll_DA424F676DEC2EA9.mvfrm
Library\Bee\artifacts\mvdfrm\UnityEngine.AudioModule.dll_298A4946A695584D.mvfrm
Library\Bee\artifacts\mvdfrm\UnityEngine.ClothModule.dll_9072A64180B23731.mvfrm
Library\Bee\artifacts\mvdfrm\UnityEngine.ClusterInputModule.dll_0FE75EE6BB1A9F7D.mvfrm
Library\Bee\artifacts\mvdfrm\UnityEngine.ClusterRendererModule.dll_6647CB34C30B9C94.mvfrm
Library\Bee\artifacts\mvdfrm\UnityEngine.CoreModule.dll_759DC1A078BDC8AC.mvfrm
Library\Bee\artifacts\mvdfrm\UnityEngine.CrashReportingModule.dll_46AB29F75A7E7FC4.mvfrm
Library\Bee\artifacts\mvdfrm\UnityEngine.DirectorModule.dll_D59CB6347C4EE1C9.mvfrm
Library\Bee\artifacts\mvdfrm\UnityEngine.dll_9D01BF81DBE00129.mvfrm
Library\Bee\artifacts\mvdfrm\UnityEngine.DSPGraphModule.dll_DAEE179DEEAFB2EA.mvfrm
Library\Bee\artifacts\mvdfrm\UnityEngine.GameCenterModule.dll_0201E17E4A7B96E4.mvfrm
Library\Bee\artifacts\mvdfrm\UnityEngine.GIModule.dll_5B346F43ADB4EDCF.mvfrm
Library\Bee\artifacts\mvdfrm\UnityEngine.GridModule.dll_530EDD8E91125EA3.mvfrm
Library\Bee\artifacts\mvdfrm\UnityEngine.HotReloadModule.dll_B0EA79C66256919D.mvfrm
Library\Bee\artifacts\mvdfrm\UnityEngine.ImageConversionModule.dll_D239C8E545305488.mvfrm
Library\Bee\artifacts\mvdfrm\UnityEngine.IMGUIModule.dll_61E9E8AD6CC6EC2E.mvfrm
Library\Bee\artifacts\mvdfrm\UnityEngine.InputLegacyModule.dll_6B876A8605DDE49A.mvfrm
Library\Bee\artifacts\mvdfrm\UnityEngine.InputModule.dll_900010F71CCD7CF1.mvfrm
Library\Bee\artifacts\mvdfrm\UnityEngine.JSONSerializeModule.dll_D404AEC67117AD3F.mvfrm
Library\Bee\artifacts\mvdfrm\UnityEngine.LocalizationModule.dll_4E34293952969276.mvfrm
Library\Bee\artifacts\mvdfrm\UnityEngine.NVIDIAModule.dll_D8B8071829740A98.mvfrm
Library\Bee\artifacts\mvdfrm\UnityEngine.ParticleSystemModule.dll_99BD7343C8900B52.mvfrm
Library\Bee\artifacts\mvdfrm\UnityEngine.PerformanceReportingModule.dll_58743E176CF1096B.mvfrm
Library\Bee\artifacts\mvdfrm\UnityEngine.Physics2DModule.dll_7C47ABB128206DB0.mvfrm
Library\Bee\artifacts\mvdfrm\UnityEngine.PhysicsModule.dll_557B8E96D001BEBE.mvfrm
Library\Bee\artifacts\mvdfrm\UnityEngine.ProfilerModule.dll_07E2EF6B15A868D6.mvfrm
Library\Bee\artifacts\mvdfrm\UnityEngine.RuntimeInitializeOnLoadManagerInitializerModule.dll_A048C84704193E79.mvfrm
Library\Bee\artifacts\mvdfrm\UnityEngine.ScreenCaptureModule.dll_EDEC5C4B8583D9A1.mvfrm
Library\Bee\artifacts\mvdfrm\UnityEngine.SharedInternalsModule.dll_564B07BABC5E4FD8.mvfrm
Library\Bee\artifacts\mvdfrm\UnityEngine.SpriteMaskModule.dll_EB2E540E6BEB2C5E.mvfrm
Library\Bee\artifacts\mvdfrm\UnityEngine.SpriteShapeModule.dll_F3A37CC2238E66B3.mvfrm
Library\Bee\artifacts\mvdfrm\UnityEngine.StreamingModule.dll_E436A910D6AB2D59.mvfrm
Library\Bee\artifacts\mvdfrm\UnityEngine.SubstanceModule.dll_C0E1BD5A21FE2B67.mvfrm
Library\Bee\artifacts\mvdfrm\UnityEngine.SubsystemsModule.dll_55DBBA703A331471.mvfrm
Library\Bee\artifacts\mvdfrm\UnityEngine.TerrainModule.dll_6FC20A05A5C007AC.mvfrm
Library\Bee\artifacts\mvdfrm\UnityEngine.TerrainPhysicsModule.dll_9A381C16E1D305DF.mvfrm
Library\Bee\artifacts\mvdfrm\UnityEngine.TextCoreFontEngineModule.dll_F3ADBF048421E8AA.mvfrm
Library\Bee\artifacts\mvdfrm\UnityEngine.TextCoreTextEngineModule.dll_3B95F57613A5A1C8.mvfrm
Library\Bee\artifacts\mvdfrm\UnityEngine.TextRenderingModule.dll_172BCE563CBB5996.mvfrm
Library\Bee\artifacts\mvdfrm\UnityEngine.TilemapModule.dll_0EBE7186BD7CE8B5.mvfrm
Library\Bee\artifacts\mvdfrm\UnityEngine.TLSModule.dll_68B056CB9A493012.mvfrm
Library\Bee\artifacts\mvdfrm\UnityEngine.UIElementsModule.dll_5A1A1BD83D5F5068.mvfrm
Library\Bee\artifacts\mvdfrm\UnityEngine.UIElementsNativeModule.dll_6687D08270B8B3BF.mvfrm
Library\Bee\artifacts\mvdfrm\UnityEngine.UIModule.dll_BE6BC4636E4D0B61.mvfrm
Library\Bee\artifacts\mvdfrm\UnityEngine.UmbraModule.dll_A45EF55F33BC03C0.mvfrm
Library\Bee\artifacts\mvdfrm\UnityEngine.UNETModule.dll_08440989C5CCBE25.mvfrm
Library\Bee\artifacts\mvdfrm\UnityEngine.UnityAnalyticsCommonModule.dll_F3B2FB5B86D9A7C9.mvfrm
Library\Bee\artifacts\mvdfrm\UnityEngine.UnityAnalyticsModule.dll_B95CE40D74B75D4E.mvfrm
Library\Bee\artifacts\mvdfrm\UnityEngine.UnityConnectModule.dll_7DAA6DE0041ACD62.mvfrm
Library\Bee\artifacts\mvdfrm\UnityEngine.UnityCurlModule.dll_62BE5CF1F7376808.mvfrm
Library\Bee\artifacts\mvdfrm\UnityEngine.UnityTestProtocolModule.dll_C0BA750626478076.mvfrm
Library\Bee\artifacts\mvdfrm\UnityEngine.UnityWebRequestAssetBundleModule.dll_7CD3F06D06DDCA9F.mvfrm
Library\Bee\artifacts\mvdfrm\UnityEngine.UnityWebRequestAudioModule.dll_D07091F5F35BD403.mvfrm
Library\Bee\artifacts\mvdfrm\UnityEngine.UnityWebRequestModule.dll_E3D8D08F5024EF07.mvfrm
Library\Bee\artifacts\mvdfrm\UnityEngine.UnityWebRequestTextureModule.dll_1A632E095A2D5838.mvfrm
Library\Bee\artifacts\mvdfrm\UnityEngine.UnityWebRequestWWWModule.dll_06583AD203655E34.mvfrm
Library\Bee\artifacts\mvdfrm\UnityEngine.VehiclesModule.dll_4D5FAFB3F678B164.mvfrm
Library\Bee\artifacts\mvdfrm\UnityEngine.VFXModule.dll_E98EEF3A70B6997F.mvfrm
Library\Bee\artifacts\mvdfrm\UnityEngine.VideoModule.dll_4E93CDB1692773F2.mvfrm
Library\Bee\artifacts\mvdfrm\UnityEngine.VirtualTexturingModule.dll_8B1484F14967344A.mvfrm
Library\Bee\artifacts\mvdfrm\UnityEngine.VRModule.dll_113DEAE9100790D9.mvfrm
Library\Bee\artifacts\mvdfrm\UnityEngine.WindModule.dll_EBEC9CC909F44715.mvfrm
Library\Bee\artifacts\mvdfrm\UnityEngine.XRModule.dll_43FCADED9941DE37.mvfrm
Library\Bee\artifacts\mvdfrm\Unity.Android.Gradle.dll_25A827A9127E67E9.mvfrm
Library\Bee\artifacts\mvdfrm\Unity.Android.Types.dll_04FD27E35DC19263.mvfrm
Library\Bee\artifacts\mvdfrm\UnityEditor.Android.Extensions.dll_44D7209955D99FC9.mvfrm
Library\Bee\artifacts\mvdfrm\UnityEditor.iOS.Extensions.Common.dll_182A1A44E2FD2A26.mvfrm
Library\Bee\artifacts\mvdfrm\UnityEditor.iOS.Extensions.dll_5252A503F369F61F.mvfrm
Library\Bee\artifacts\mvdfrm\UnityEditor.iOS.Extensions.Xcode.dll_DCB1972BD084D886.mvfrm
Library\Bee\artifacts\mvdfrm\UnityEditor.WindowsStandalone.Extensions.dll_7BAED79BC9FCE52F.mvfrm