Library\Bee\artifacts\mvdfrm\UnityEngine.AccessibilityModule.dll_48331C6048D3C5E8.mvfrm
Library\Bee\artifacts\mvdfrm\UnityEngine.AIModule.dll_EDFD1DE36F1F2612.mvfrm
Library\Bee\artifacts\mvdfrm\UnityEngine.AndroidJNIModule.dll_4A4AAB6BA5CEF4D0.mvfrm
Library\Bee\artifacts\mvdfrm\UnityEngine.AnimationModule.dll_B72B68677818EA8E.mvfrm
Library\Bee\artifacts\mvdfrm\UnityEngine.ARModule.dll_A76FE2E6CC3C84DB.mvfrm
Library\Bee\artifacts\mvdfrm\UnityEngine.AssetBundleModule.dll_E60656F92EA9FF7C.mvfrm
Library\Bee\artifacts\mvdfrm\UnityEngine.AudioModule.dll_3375426995B7F800.mvfrm
Library\Bee\artifacts\mvdfrm\UnityEngine.ClothModule.dll_9A5D9F646FD4D6E4.mvfrm
Library\Bee\artifacts\mvdfrm\UnityEngine.CoreModule.dll_257A025A3D1C46A9.mvfrm
Library\Bee\artifacts\mvdfrm\UnityEngine.CrashReportingModule.dll_E85377F7379F1DE1.mvfrm
Library\Bee\artifacts\mvdfrm\UnityEngine.DirectorModule.dll_C05A7AAB8E7C7706.mvfrm
Library\Bee\artifacts\mvdfrm\UnityEngine.dll_3EF2B0A254AD429C.mvfrm
Library\Bee\artifacts\mvdfrm\UnityEngine.DSPGraphModule.dll_C5ABDC1500DD4827.mvfrm
Library\Bee\artifacts\mvdfrm\UnityEngine.GameCenterModule.dll_7497F5866C0FE5C1.mvfrm
Library\Bee\artifacts\mvdfrm\UnityEngine.GIModule.dll_863966F10ACE0E2C.mvfrm
Library\Bee\artifacts\mvdfrm\UnityEngine.GridModule.dll_02EB1E485570DCA0.mvfrm
Library\Bee\artifacts\mvdfrm\UnityEngine.HotReloadModule.dll_3874266D534C0610.mvfrm
Library\Bee\artifacts\mvdfrm\UnityEngine.ImageConversionModule.dll_4CF845753134421B.mvfrm
Library\Bee\artifacts\mvdfrm\UnityEngine.IMGUIModule.dll_6BD4E1D05BE98BE1.mvfrm
Library\Bee\artifacts\mvdfrm\UnityEngine.InputLegacyModule.dll_774B7217C69BB56D.mvfrm
Library\Bee\artifacts\mvdfrm\UnityEngine.InputModule.dll_99EB0A1A0BF01CA4.mvfrm
Library\Bee\artifacts\mvdfrm\UnityEngine.JSONSerializeModule.dll_A84AA59C480F2672.mvfrm
Library\Bee\artifacts\mvdfrm\UnityEngine.LocalizationModule.dll_7EE0A201797F0EF3.mvfrm
Library\Bee\artifacts\mvdfrm\UnityEngine.ParticleSystemModule.dll_3B65C143A5B0A96F.mvfrm
Library\Bee\artifacts\mvdfrm\UnityEngine.PerformanceReportingModule.dll_28FBF0E5E0E2C468.mvfrm
Library\Bee\artifacts\mvdfrm\UnityEngine.Physics2DModule.dll_03D158581915E223.mvfrm
Library\Bee\artifacts\mvdfrm\UnityEngine.PhysicsModule.dll_5DD98911FC6EA2D1.mvfrm
Library\Bee\artifacts\mvdfrm\UnityEngine.ProfilerModule.dll_F2A0B3E227D5FE13.mvfrm
Library\Bee\artifacts\mvdfrm\UnityEngine.RuntimeInitializeOnLoadManagerInitializerModule.dll_A73AD022553818EC.mvfrm
Library\Bee\artifacts\mvdfrm\UnityEngine.ScreenCaptureModule.dll_C23253215C7B52D4.mvfrm
Library\Bee\artifacts\mvdfrm\UnityEngine.SharedInternalsModule.dll_D109844AA8623D6B.mvfrm
Library\Bee\artifacts\mvdfrm\UnityEngine.SpriteMaskModule.dll_5DC468168D7F7B3B.mvfrm
Library\Bee\artifacts\mvdfrm\UnityEngine.SpriteShapeModule.dll_FF678453E44C3786.mvfrm
Library\Bee\artifacts\mvdfrm\UnityEngine.StreamingModule.dll_6BC055B7C7A0A1CC.mvfrm
Library\Bee\artifacts\mvdfrm\UnityEngine.SubstanceModule.dll_486B6A0112F39FDA.mvfrm
Library\Bee\artifacts\mvdfrm\UnityEngine.SubsystemsModule.dll_C871CE785BC7634E.mvfrm
Library\Bee\artifacts\mvdfrm\UnityEngine.TerrainModule.dll_78200480D22CEBBF.mvfrm
Library\Bee\artifacts\mvdfrm\UnityEngine.TerrainPhysicsModule.dll_3BE06A16BEF3A3FC.mvfrm
Library\Bee\artifacts\mvdfrm\UnityEngine.TextCoreFontEngineModule.dll_7AC003F29D48A607.mvfrm
Library\Bee\artifacts\mvdfrm\UnityEngine.TextCoreTextEngineModule.dll_C2A83A642CCC5F25.mvfrm
Library\Bee\artifacts\mvdfrm\UnityEngine.TextRenderingModule.dll_EB71C52C13B2D2C9.mvfrm
Library\Bee\artifacts\mvdfrm\UnityEngine.TilemapModule.dll_171C6C01E9E9CCC8.mvfrm
Library\Bee\artifacts\mvdfrm\UnityEngine.TLSModule.dll_3C2A4A16008E5765.mvfrm
Library\Bee\artifacts\mvdfrm\UnityEngine.UIElementsModule.dll_CCB02FE05EF39F45.mvfrm
Library\Bee\artifacts\mvdfrm\UnityEngine.UIElementsNativeModule.dll_5E9EAD8DC7BBE77C.mvfrm
Library\Bee\artifacts\mvdfrm\UnityEngine.UIModule.dll_E970BC10CB662BBE.mvfrm
Library\Bee\artifacts\mvdfrm\UnityEngine.UmbraModule.dll_AE49EE8222DEA373.mvfrm
Library\Bee\artifacts\mvdfrm\UnityEngine.UNETModule.dll_B8204A438A2B3C22.mvfrm
Library\Bee\artifacts\mvdfrm\UnityEngine.UnityAnalyticsCommonModule.dll_C43AAE29FACB62C6.mvfrm
Library\Bee\artifacts\mvdfrm\UnityEngine.UnityAnalyticsModule.dll_5B05320D51D7FB6B.mvfrm
Library\Bee\artifacts\mvdfrm\UnityEngine.UnityConnectModule.dll_AE56E6A82B0349DF.mvfrm
Library\Bee\artifacts\mvdfrm\UnityEngine.UnityCurlModule.dll_EA480998E82CDC7B.mvfrm
Library\Bee\artifacts\mvdfrm\UnityEngine.UnityTestProtocolModule.dll_2F98A60DE1BC2E69.mvfrm
Library\Bee\artifacts\mvdfrm\UnityEngine.UnityWebRequestAssetBundleModule.dll_8D0EDB60964E367C.mvfrm
Library\Bee\artifacts\mvdfrm\UnityEngine.UnityWebRequestAudioModule.dll_A0F844C4674D8F00.mvfrm
Library\Bee\artifacts\mvdfrm\UnityEngine.UnityWebRequestModule.dll_5E974D1F3C28DC9A.mvfrm
Library\Bee\artifacts\mvdfrm\UnityEngine.UnityWebRequestTextureModule.dll_BAF5AAC977C804D5.mvfrm
Library\Bee\artifacts\mvdfrm\UnityEngine.UnityWebRequestWWWModule.dll_8D6A7FC01C8C1B91.mvfrm
Library\Bee\artifacts\mvdfrm\UnityEngine.VehiclesModule.dll_381D742B08A646A1.mvfrm
Library\Bee\artifacts\mvdfrm\UnityEngine.VFXModule.dll_BD08E284D6FBC0D2.mvfrm
Library\Bee\artifacts\mvdfrm\UnityEngine.VideoModule.dll_587EC6D4584A13A5.mvfrm
Library\Bee\artifacts\mvdfrm\UnityEngine.VRModule.dll_3C42E2966D20B136.mvfrm
Library\Bee\artifacts\mvdfrm\UnityEngine.WindModule.dll_9BC8DD82CE52C512.mvfrm
Library\Bee\artifacts\mvdfrm\UnityEngine.XRModule.dll_6F01A59AF65AFE94.mvfrm