%YAML 1.1
%TAG !u! tag:unity3d.com,2011:
--- !u!21 &2100000
Material:
  serializedVersion: 6
  m_ObjectHideFlags: 0
  m_CorrespondingSourceObject: {fileID: 0}
  m_PrefabInstance: {fileID: 0}
  m_PrefabAsset: {fileID: 0}
  m_Name: Effect_12_Sphere_4
  m_Shader: {fileID: 4800000, guid: 1d58a8e283100ea4f8435e923e54553e, type: 3}
  m_ShaderKeywords: IS_NORMAL_ANIMATE IS_RIMLIGHT IS_SOFT_PARTICLES IS_TEXTURE_ANIMATE
    IS_UNITY_PARTICLE_INSTANCING_ENABLED _ALPHAPREMULTIPLY_ON
  m_LightmapFlags: 0
  m_EnableInstancingVariants: 1
  m_DoubleSidedGI: 0
  m_CustomRenderQueue: 3002
  stringTagMap: {}
  disabledShaderPasses: []
  m_SavedProperties:
    serializedVersion: 3
    m_TexEnvs:
    - _BumpMap:
        m_Texture: {fileID: 0}
        m_Scale: {x: 1, y: 1}
        m_Offset: {x: 0, y: 0}
    - _DetailAlbedoMap:
        m_Texture: {fileID: 0}
        m_Scale: {x: 1, y: 1}
        m_Offset: {x: 0, y: 0}
    - _DetailMask:
        m_Texture: {fileID: 0}
        m_Scale: {x: 1, y: 1}
        m_Offset: {x: 0, y: 0}
    - _DetailNormalMap:
        m_Texture: {fileID: 0}
        m_Scale: {x: 1, y: 1}
        m_Offset: {x: 0, y: 0}
    - _EmissionMap:
        m_Texture: {fileID: 0}
        m_Scale: {x: 1, y: 1}
        m_Offset: {x: 0, y: 0}
    - _FixedMaskTex:
        m_Texture: {fileID: 0}
        m_Scale: {x: 1, y: 1}
        m_Offset: {x: 0, y: 0}
    - _LinePassTex:
        m_Texture: {fileID: 0}
        m_Scale: {x: 1, y: 1}
        m_Offset: {x: 0, y: 0}
    - _MainTex:
        m_Texture: {fileID: 2800000, guid: 1dd87d263698bdd489172bf9aa265da1, type: 3}
        m_Scale: {x: 2, y: 2}
        m_Offset: {x: 0, y: 0}
    - _MaskDistortion:
        m_Texture: {fileID: 2800000, guid: 9a9498ac1b0e2484dbe7cdeee7973e50, type: 3}
        m_Scale: {x: 1, y: 1}
        m_Offset: {x: 0, y: 0}
    - _MaskTex:
        m_Texture: {fileID: 2800000, guid: a1e4bc17d92703c46b85af820c49f976, type: 3}
        m_Scale: {x: 1, y: 1}
        m_Offset: {x: 0, y: 0}
    - _MetallicGlossMap:
        m_Texture: {fileID: 0}
        m_Scale: {x: 1, y: 1}
        m_Offset: {x: 0, y: 0}
    - _NoiseNormal:
        m_Texture: {fileID: 0}
        m_Scale: {x: 1, y: 1}
        m_Offset: {x: 0, y: 0}
    - _NoiseTex:
        m_Texture: {fileID: 0}
        m_Scale: {x: 1, y: 1}
        m_Offset: {x: 0, y: 0}
    - _NormalTex:
        m_Texture: {fileID: 2800000, guid: 9a9498ac1b0e2484dbe7cdeee7973e50, type: 3}
        m_Scale: {x: 3, y: 3}
        m_Offset: {x: 0, y: 0}
    - _OcclusionMap:
        m_Texture: {fileID: 0}
        m_Scale: {x: 1, y: 1}
        m_Offset: {x: 0, y: 0}
    - _ParallaxMap:
        m_Texture: {fileID: 0}
        m_Scale: {x: 1, y: 1}
        m_Offset: {x: 0, y: 0}
    m_Floats:
    - _BlendDst: 10
    - _BlendOp: 0
    - _BlendSrc: 5
    - _BumpScale: 1
    - _CameraFadingEnabled: 0
    - _CameraFarFadeDistance: 2
    - _CameraNearFadeDistance: 1
    - _ColorFactor: 0.5
    - _ColorMode: 0
    - _Cull: 2
    - _Culling: 2
    - _Cutoff: 0.5
    - _DetailNormalMapScale: 1
    - _DistortionBlend: 0.5
    - _DistortionEnabled: 0
    - _DistortionStrength: 1
    - _DistortionStrengthScaled: 0
    - _DstBlend: 10
    - _EmissionEnabled: 0
    - _FlipbookMode: 0
    - _GlossMapScale: 1
    - _Glossiness: 0.5
    - _GlossyReflections: 1
    - _Impact: 0
    - _ImpactSize: 0.5
    - _InvFade: 1
    - _Lighting: 0
    - _LightingEnabled: 0
    - _LinePass: 0
    - _MaskAnimatedSpeed: 1
    - _MaskCutOut: 1
    - _MaskFade: 0
    - _MaskOffsetFactor: 15
    - _Metallic: 0
    - _MixedMove: 0
    - _Mode: 3
    - _NoiseNormalFactor: 1
    - _NoiseScale: 0
    - _NormalAnimate: 1
    - _NormalAnimateSpeed: 0.5
    - _NormalDistortion: 0
    - _NormalDistortionFactor: 1
    - _OcclusionStrength: 1
    - _Parallax: 0.02
    - _ParticleInstancing: 1
    - _RimLight: 1
    - _RimScale: 15
    - _RimStrength: 15
    - _SecondColor: 0
    - _SmoothnessTextureChannel: 0
    - _SoftParticle: 1
    - _SoftParticlesEnabled: 0
    - _SoftParticlesFarFadeDistance: 1
    - _SoftParticlesNearFadeDistance: 0
    - _SpecularHighlights: 1
    - _SrcBlend: 1
    - _TexLength: 1
    - _TexPath: 1
    - _TexPosMove: -1
    - _TexcoordMove: 0
    - _TexcoordMoveStrength: 5
    - _TextureAnimate: 1
    - _TextureAnimateSpeed: 1
    - _TextureAnimateStyle: 2
    - _TextureBlend: 0
    - _TextureNoise: 0
    - _UVSec: 0
    - _UseTexAnimation: 0
    - _VertexAnimation: 0
    - _ZTest: 5
    - _ZTest1: 6
    - _ZTest2: 6
    - _ZTest3: 2
    - _ZWrite: 0
    - _xTexcoordMove: -1
    - _yTexcoordMove: 0
    m_Colors:
    - _CameraFadeParams: {r: 0, g: Infinity, b: 0, a: 0}
    - _Color: {r: 3.9999995, g: 3.9999995, b: 3.9999995, a: 1}
    - _ColorAddSubDiff: {r: 0, g: 0, b: 0, a: 0}
    - _EmissionColor: {r: 0, g: 0, b: 0, a: 1}
    - _NoiseValue: {r: 0, g: 0, b: 0, a: 0}
    - _RimColor: {r: 2.4303575, g: 0.067254975, b: 0, a: 1}
    - _SoftParticleFadeParams: {r: 0, g: 0, b: 0, a: 0}
    - _TintColor: {r: 1, g: 0.007843138, b: 0, a: 1}
    - _TintColor2: {r: 1, g: 1, b: 1, a: 1}
