Library\Bee\artifacts\mvdfrm\UnityEngine.TestRunner.ref.dll_E55D0F7C63F01D9E.mvfrm
Library\Bee\artifacts\mvdfrm\UnityEditor.Graphs.dll_5FE59F26501A734E.mvfrm
Library\Bee\artifacts\mvdfrm\UnityEditor.CoreModule.dll_24CEE6C2EB98051C.mvfrm
Library\Bee\artifacts\mvdfrm\UnityEditor.DeviceSimulatorModule.dll_F404AF763A9D9765.mvfrm
Library\Bee\artifacts\mvdfrm\UnityEditor.DiagnosticsModule.dll_98EA0B1D02D5E873.mvfrm
Library\Bee\artifacts\mvdfrm\UnityEditor.dll_508BE4E82FD719B9.mvfrm
Library\Bee\artifacts\mvdfrm\UnityEditor.GraphViewModule.dll_19AB28AF6759FBEA.mvfrm
Library\Bee\artifacts\mvdfrm\UnityEditor.PackageManagerUIModule.dll_54BF9F21B8A9A778.mvfrm
Library\Bee\artifacts\mvdfrm\UnityEditor.QuickSearchModule.dll_23F98C2A5BACE4CC.mvfrm
Library\Bee\artifacts\mvdfrm\UnityEditor.SceneTemplateModule.dll_92D450300D2FF4CD.mvfrm
Library\Bee\artifacts\mvdfrm\UnityEditor.TextCoreFontEngineModule.dll_DD127EE54713671A.mvfrm
Library\Bee\artifacts\mvdfrm\UnityEditor.TextCoreTextEngineModule.dll_24FAB556D6972038.mvfrm
Library\Bee\artifacts\mvdfrm\UnityEditor.UIBuilderModule.dll_6E33D5CBDA12751E.mvfrm
Library\Bee\artifacts\mvdfrm\UnityEditor.UIElementsModule.dll_645B1D18521D96D8.mvfrm
Library\Bee\artifacts\mvdfrm\UnityEditor.UIElementsSamplesModule.dll_AA70B483541FC015.mvfrm
Library\Bee\artifacts\mvdfrm\UnityEditor.UIServiceModule.dll_A725E72EC349C538.mvfrm
Library\Bee\artifacts\mvdfrm\UnityEditor.UnityConnectModule.dll_03AB3FC52D2341D2.mvfrm
Library\Bee\artifacts\mvdfrm\UnityEngine.AccessibilityModule.dll_C579BBC70DA61C6A.mvfrm
Library\Bee\artifacts\mvdfrm\UnityEngine.AIModule.dll_1044AB25B7AA47F0.mvfrm
Library\Bee\artifacts\mvdfrm\UnityEngine.AndroidJNIModule.dll_E2A405EB9B3D05AE.mvfrm
Library\Bee\artifacts\mvdfrm\UnityEngine.AnimationModule.dll_E830A4D841B6D090.mvfrm
Library\Bee\artifacts\mvdfrm\UnityEngine.ARModule.dll_C9B7702914C7A6B9.mvfrm
Library\Bee\artifacts\mvdfrm\UnityEngine.AssetBundleModule.dll_67E2BF1BBE1399BE.mvfrm
Library\Bee\artifacts\mvdfrm\UnityEngine.AudioModule.dll_F667D5C0ED718D82.mvfrm
Library\Bee\artifacts\mvdfrm\UnityEngine.ClothModule.dll_5D5032BBC78E6C66.mvfrm
Library\Bee\artifacts\mvdfrm\UnityEngine.ClusterInputModule.dll_8347B4DADEAB1498.mvfrm
Library\Bee\artifacts\mvdfrm\UnityEngine.ClusterRendererModule.dll_F9B171E7AA58A4E9.mvfrm
Library\Bee\artifacts\mvdfrm\UnityEngine.CoreModule.dll_47EFBA15939D7047.mvfrm
Library\Bee\artifacts\mvdfrm\UnityEngine.CrashReportingModule.dll_A6D26272D4EF763F.mvfrm
Library\Bee\artifacts\mvdfrm\UnityEngine.DirectorModule.dll_21F61AEC75001824.mvfrm
Library\Bee\artifacts\mvdfrm\UnityEngine.dll_83302BC08E4AA69E.mvfrm
Library\Bee\artifacts\mvdfrm\UnityEngine.DSPGraphModule.dll_27477C55E760E945.mvfrm
Library\Bee\artifacts\mvdfrm\UnityEngine.GameCenterModule.dll_0CF15006617DF69F.mvfrm
Library\Bee\artifacts\mvdfrm\UnityEngine.GIModule.dll_A880F4335359300A.mvfrm
Library\Bee\artifacts\mvdfrm\UnityEngine.GridModule.dll_2560D603ABF2063E.mvfrm
Library\Bee\artifacts\mvdfrm\UnityEngine.HotReloadModule.dll_697962DE1CE9EC12.mvfrm
Library\Bee\artifacts\mvdfrm\UnityEngine.ImageConversionModule.dll_65A36F982C7D5CDD.mvfrm
Library\Bee\artifacts\mvdfrm\UnityEngine.IMGUIModule.dll_2EC77527B3A32163.mvfrm
Library\Bee\artifacts\mvdfrm\UnityEngine.InputLegacyModule.dll_F927DA3A56054FAF.mvfrm
Library\Bee\artifacts\mvdfrm\UnityEngine.InputModule.dll_5CDD9D7163A9B226.mvfrm
Library\Bee\artifacts\mvdfrm\UnityEngine.JSONSerializeModule.dll_259145030CE17CF4.mvfrm
Library\Bee\artifacts\mvdfrm\UnityEngine.LocalizationModule.dll_C1947F2D76270791.mvfrm
Library\Bee\artifacts\mvdfrm\UnityEngine.NVIDIAModule.dll_76A16E3481AB8393.mvfrm
Library\Bee\artifacts\mvdfrm\UnityEngine.ParticleSystemModule.dll_F9E4ABBF430101CD.mvfrm
Library\Bee\artifacts\mvdfrm\UnityEngine.PerformanceReportingModule.dll_7C6E1D4660190C06.mvfrm
Library\Bee\artifacts\mvdfrm\UnityEngine.Physics2DModule.dll_34D694C8E2B3C825.mvfrm
Library\Bee\artifacts\mvdfrm\UnityEngine.PhysicsModule.dll_F0D1A2A9228CDC93.mvfrm
Library\Bee\artifacts\mvdfrm\UnityEngine.ProfilerModule.dll_543C54230E599F31.mvfrm
Library\Bee\artifacts\mvdfrm\UnityEngine.RuntimeInitializeOnLoadManagerInitializerModule.dll_84604D1BF7DD02EE.mvfrm
Library\Bee\artifacts\mvdfrm\UnityEngine.ScreenCaptureModule.dll_3F78F288214DA956.mvfrm
Library\Bee\artifacts\mvdfrm\UnityEngine.SharedInternalsModule.dll_E9B4AE6DA3AB582D.mvfrm
Library\Bee\artifacts\mvdfrm\UnityEngine.SpriteMaskModule.dll_F61DC29682ED8C19.mvfrm
Library\Bee\artifacts\mvdfrm\UnityEngine.SpriteShapeModule.dll_8143EC7673B5D1C8.mvfrm
Library\Bee\artifacts\mvdfrm\UnityEngine.StreamingModule.dll_9CC59228913E87CE.mvfrm
Library\Bee\artifacts\mvdfrm\UnityEngine.SubstanceModule.dll_7970A671DC9185DC.mvfrm
Library\Bee\artifacts\mvdfrm\UnityEngine.SubsystemsModule.dll_60CB28F85135742C.mvfrm
Library\Bee\artifacts\mvdfrm\UnityEngine.TerrainModule.dll_0B181E17F84B2581.mvfrm
Library\Bee\artifacts\mvdfrm\UnityEngine.TerrainPhysicsModule.dll_FA5F54925C43FC5A.mvfrm
Library\Bee\artifacts\mvdfrm\UnityEngine.TextCoreFontEngineModule.dll_5B71FA385A1125E5.mvfrm
Library\Bee\artifacts\mvdfrm\UnityEngine.TextCoreTextEngineModule.dll_A35A30A9E994DF03.mvfrm
Library\Bee\artifacts\mvdfrm\UnityEngine.TextRenderingModule.dll_68B86492D885294B.mvfrm
Library\Bee\artifacts\mvdfrm\UnityEngine.TilemapModule.dll_AA1485991008068A.mvfrm
Library\Bee\artifacts\mvdfrm\UnityEngine.TLSModule.dll_310A4A964DED50A7.mvfrm
Library\Bee\artifacts\mvdfrm\UnityEngine.UIElementsModule.dll_65098A605461B023.mvfrm
Library\Bee\artifacts\mvdfrm\UnityEngine.UIElementsNativeModule.dll_9F3953B72A22179A.mvfrm
Library\Bee\artifacts\mvdfrm\UnityEngine.UIModule.dll_0BB8495313F14D9C.mvfrm
Library\Bee\artifacts\mvdfrm\UnityEngine.UmbraModule.dll_713C81D97A9838F5.mvfrm
Library\Bee\artifacts\mvdfrm\UnityEngine.UNETModule.dll_DA9601FEE0AC65C0.mvfrm
Library\Bee\artifacts\mvdfrm\UnityEngine.UnityAnalyticsCommonModule.dll_17ACDA8A7A01AA64.mvfrm
Library\Bee\artifacts\mvdfrm\UnityEngine.UnityAnalyticsModule.dll_19841C88EF2853C9.mvfrm
Library\Bee\artifacts\mvdfrm\UnityEngine.UnityConnectModule.dll_F10AC3D427AB427D.mvfrm
Library\Bee\artifacts\mvdfrm\UnityEngine.UnityCurlModule.dll_1B4D4609B1CAC27D.mvfrm
Library\Bee\artifacts\mvdfrm\UnityEngine.UnityTestProtocolModule.dll_66336A75AE1B156B.mvfrm
Library\Bee\artifacts\mvdfrm\UnityEngine.UnityWebRequestAssetBundleModule.dll_2C22D7D5F0A8A55A.mvfrm
Library\Bee\artifacts\mvdfrm\UnityEngine.UnityWebRequestAudioModule.dll_F46A7124E683D69E.mvfrm
Library\Bee\artifacts\mvdfrm\UnityEngine.UnityWebRequestModule.dll_774277423771F75C.mvfrm
Library\Bee\artifacts\mvdfrm\UnityEngine.UnityWebRequestTextureModule.dll_CE4FDFC352168C33.mvfrm
Library\Bee\artifacts\mvdfrm\UnityEngine.UnityWebRequestWWWModule.dll_6E1C7605D9549B6F.mvfrm
Library\Bee\artifacts\mvdfrm\UnityEngine.VehiclesModule.dll_99B9146BEF29E7BF.mvfrm
Library\Bee\artifacts\mvdfrm\UnityEngine.VFXModule.dll_B1E8E305245ABA14.mvfrm
Library\Bee\artifacts\mvdfrm\UnityEngine.VideoModule.dll_1B715A2BB003A927.mvfrm
Library\Bee\artifacts\mvdfrm\UnityEngine.VirtualTexturingModule.dll_C3C6082602D09825.mvfrm
Library\Bee\artifacts\mvdfrm\UnityEngine.VRModule.dll_5E8A6FD8B5ABD314.mvfrm
Library\Bee\artifacts\mvdfrm\UnityEngine.WindModule.dll_BE3E953E24D3EEB0.mvfrm
Library\Bee\artifacts\mvdfrm\UnityEngine.XRModule.dll_914932DD3EE62072.mvfrm
Library\Bee\artifacts\mvdfrm\Unity.Android.Gradle.dll_99087D9D360EDD04.mvfrm
Library\Bee\artifacts\mvdfrm\Unity.Android.Types.dll_929D9797ADE8FD78.mvfrm
Library\Bee\artifacts\mvdfrm\UnityEditor.Android.Extensions.dll_F8C3D2534DC2D3C4.mvfrm
Library\Bee\artifacts\mvdfrm\UnityEditor.WindowsStandalone.Extensions.dll_7C1C1C8925E5FA44.mvfrm